…
stu <- readILSA(file.path(tempdir(),"REDS_2021_student.sav"))

stu
## # A tibble: 40 × 336
##    CNTRY IDCNTRY_STR   IDCNTRY   IDSCHOOL IDSTUD SEX       ASDAGE   ITLANGS    
##    <chr> <chr>         <dbl+lbl> <dbl+lb> <dbl+> <dbl+lbl> <dbl+lb> <dbl+lbl>  
##  1 ARE   United Arab … 784 [Uni… 1001     1.00e7 2 [Male]  13       53 [Arabic]
##  2 ARE   United Arab … 784 [Uni… 1001     1.00e7 2 [Male]  12.7     53 [Arabic]
##  3 ARE   United Arab … 784 [Uni… 1001     1.00e7 2 [Male]  13.4     53 [Arabic]
##  4 ARE   United Arab … 784 [Uni… 1001     1.00e7 2 [Male]  13.8     53 [Arabic]
##  5 ARE   United Arab … 784 [Uni… 1001     1.00e7 2 [Male]  13.4     53 [Arabic]
##  6 ARE   United Arab … 784 [Uni… 1001     1.00e7 2 [Male]  13.4     53 [Arabic]
##  7 ARE   United Arab … 784 [Uni… 1001     1.00e7 2 [Male]  13.2     53 [Arabic]
##  8 ARE   United Arab … 784 [Uni… 1001     1.00e7 2 [Male]  13.8     53 [Arabic]
##  9 ARE   United Arab … 784 [Uni… 1001     1.00e7 2 [Male]  13.8     53 [Arabic]
## 10 ARE   United Arab … 784 [Uni… 1001     1.00e7 2 [Male]  12.2     53 [Arabic]
## # ℹ 30 more rows
## # ℹ 328 more variables: IS1G01 <dbl+lbl>, IS1G02A <dbl+lbl>, IS1G02B <dbl+lbl>,
## #   IS1G02C <dbl+lbl>, IS1G03 <dbl+lbl>, IS1G04A <dbl+lbl>, IS1G04B <dbl+lbl>,
## #   IS1G04C <dbl+lbl>, IS1G04D <dbl+lbl>, IS1G04E <dbl+lbl>, IS2G04F <dbl+lbl>,
## #   IS2G04G <dbl+lbl>, IS1G05A <dbl+lbl>, IS1G05B <dbl+lbl>, IS1G05C <dbl+lbl>,
## #   IS1G06 <dbl+lbl>, IS1G07A <dbl+lbl>, IS1G07B <dbl+lbl>, IS1G07C <dbl+lbl>,
## #   IS1G07D <dbl+lbl>, IS1G07E <dbl+lbl>, IS1G07F <dbl+lbl>, …
```
…
